<?xml version="1.0" encoding="UTF-8"?>
<!DOCTYPE svg PUBLIC "-//W3C//DTD SVG 1.1//EN" "http://www.w3.org/Graphics/SVG/1.1/DTD/svg11.dtd">
<!-- Creator: CorelDRAW X8 -->
<svg xmlns="http://www.w3.org/2000/svg" xml:space="preserve" width="80px" height="19px" version="1.1" shape-rendering="geometricPrecision" text-rendering="geometricPrecision" image-rendering="optimizeQuality" fill-rule="evenodd" clip-rule="evenodd"
viewBox="0 0 75933 18363"
 xmlns:xlink="http://www.w3.org/1999/xlink">
 <g id="Слой_x0020_1">
  <metadata id="CorelCorpID_0Corel-Layer"/>
  <g id="Webest_logo_RGB.cdr">
   <path fill="white" fill-rule="nonzero" d="M8924 4650c1251,0 2384,507 3204,1327 820,820 1328,1953 1328,3205 0,1251 -508,2384 -1328,3204 -820,820 -1953,1327 -3204,1327 -1252,0 -2385,-507 -3205,-1327 -820,-820 -1327,-1953 -1327,-3204 0,-1252 507,-2385 1327,-3205 820,-820 1953,-1327 3205,-1327zm1564 2967c-400,-400 -953,-647 -1564,-647 -611,0 -1164,247 -1564,647 -400,400 -648,954 -648,1565 0,611 248,1164 648,1564 400,400 953,648 1564,648 611,0 1164,-248 1564,-648 400,-400 648,-953 648,-1564 0,-611 -248,-1165 -648,-1565z"/>
   <path fill="white" fill-rule="nonzero" d="M0 7047c495,-2065 1665,-3826 3241,-5069 1582,-1248 3566,-1978 5683,-1978 2535,0 4830,1028 6492,2689 1661,1662 2689,3957 2689,6493 0,945 -146,1880 -429,2772 -282,889 -702,1738 -1249,2514l-2293 -1613c377,-534 667,-1124 865,-1746 195,-619 297,-1268 297,-1927 0,-1760 -713,-3354 -1866,-4507 -1153,-1153 -2746,-1866 -4506,-1866 -1481,0 -2859,504 -3949,1364 -1097,865 -1910,2087 -2254,3521l-2721 -647zm35879 -513l-1750 6221c-145,501 -333,862 -564,1084 -328,299 -815,449 -1461,449 -1090,0 -1746,-371 -1968,-1114l-1012 -3342c-48,-154 -87,-231 -116,-231 -29,0 -67,77 -115,231l-1013 3342c-222,743 -878,1114 -1967,1114 -647,0 -1133,-150 -1462,-449 -231,-222 -419,-583 -564,-1084l-1750 -6221 2691 0 1157 4412c38,155 86,232 145,232 38,0 82,-72 130,-217l1128 -3703c164,-540 704,-810 1620,-810 916,0 1456,270 1620,810l1129 3703c48,145 91,217 130,217 58,0 106,-77 144,-232l1157 -4412 2691 0zm8144 3009c0,685 -154,1153 -463,1403 -183,145 -434,217 -752,217l-4180 0c-20,251 24,461 130,630 106,168 284,277 535,325 125,19 371,29 738,29l3717 0 0 2054 -4845 0c-733,0 -1254,-43 -1563,-130 -501,-135 -885,-420 -1150,-854 -265,-434 -398,-1355 -398,-2763 0,-993 15,-1624 44,-1894 77,-598 272,-1056 586,-1375 313,-318 822,-530 1526,-636 453,-68 1147,-101 2083,-101 906,0 1552,24 1938,72 540,77 950,226 1229,448 550,444 825,1302 825,2575zm-2835 -578c0,-338 -289,-526 -868,-565 -145,-9 -280,-14 -405,-14 -588,0 -957,72 -1106,217 -150,145 -210,400 -181,767l2097 0c309,0 463,-135 463,-405zm11673 1388c0,1148 -168,2006 -506,2575 -501,849 -1403,1273 -2705,1273l-3370 0c-540,0 -950,-150 -1230,-448 -221,-241 -333,-555 -333,-941l0 -8737 2836 0 0 2459 2054 0c1311,0 2223,415 2734,1244 347,570 520,1428 520,2575zm-2892 -29c0,-520 -63,-921 -189,-1200 -173,-395 -487,-594 -940,-594l-1287 0 0 2922c0,280 45,466 137,558 92,91 263,137 514,137l578 0c492,0 820,-174 984,-521 135,-279 203,-713 203,-1302zm11644 -781c0,685 -154,1153 -463,1403 -183,145 -434,217 -752,217l-4181 0c-19,251 24,461 131,630 106,168 284,277 535,325 125,19 371,29 738,29l3717 0 0 2054 -4846 0c-733,0 -1253,-43 -1562,-130 -501,-135 -885,-420 -1150,-854 -265,-434 -398,-1355 -398,-2763 0,-993 15,-1624 44,-1894 77,-598 272,-1056 586,-1375 313,-318 822,-530 1526,-636 453,-68 1147,-101 2083,-101 906,0 1552,24 1938,72 540,77 950,226 1230,448 549,444 824,1302 824,2575zm-2835 -578c0,-338 -289,-526 -868,-565 -145,-9 -280,-14 -405,-14 -588,0 -957,72 -1107,217 -149,145 -209,400 -181,767l2098 0c309,0 463,-135 463,-405zm10820 3240c0,752 -212,1297 -637,1634 -298,242 -718,362 -1258,362l-5482 0 0 -2054 4180 0c58,0 113,-17 166,-51 54,-33 80,-84 80,-151 0,-68 -39,-123 -116,-167 -77,-43 -371,-147 -882,-311l-1649 -535c-801,-261 -1326,-598 -1577,-1013 -193,-318 -289,-747 -289,-1287 0,-560 120,-1017 361,-1374 328,-482 921,-724 1780,-724l5120 0 0 1968 -4166 0c-183,0 -294,4 -332,14 -87,20 -130,63 -130,130 0,77 53,135 159,174 77,38 270,111 578,217l1938 651c907,308 1493,653 1758,1034 265,381 398,875 398,1483zm6335 -3703l-2184 0 0 1750c0,733 164,1244 492,1533 270,241 685,362 1244,362l420 0 0 2054 -1649 0c-1071,0 -1862,-174 -2373,-521 -646,-434 -969,-1061 -969,-1880l0 -3298 -1085 0 0 -1968 1085 0 0 -2459 2835 0 0 2459 2184 0 0 1968zm-61061 7664c-837,713 -1779,1262 -2779,1630 -1010,372 -2082,567 -3169,567 -398,0 -813,-30 -1242,-88 -414,-57 -823,-142 -1223,-254l746 -2699c280,78 564,137 850,177 269,36 560,55 869,55 761,0 1506,-134 2204,-391 708,-261 1363,-640 1933,-1125l1811 2128zm-10767 825c-439,-271 -852,-576 -1234,-912 -388,-341 -745,-711 -1069,-1109l2173 -1767c227,279 474,536 739,769 270,237 558,451 861,637l-1470 2382z"/>
  </g>
 </g>
</svg>
